Categories:System
License:GPLv3
Web Site:http://projectmaxs.org
Source Code:http://projectmaxs.org/source
Issue Tracker:http://projectmaxs.org/issues
Donate:http://projectmaxs.org/donate
FlattrID:2148361
Bitcoin:1AUuXzvVUh1HMb2kVYnDWz8TgjbJMaZqDt

Auto Name:MAXS Main
Summary:Main component of MAXS
Description:
MAXS (Modular Android XMPP Service) allows you to receive
notifications and remote control your Android device over XMPP. You
will need at least one transport component and one module besides MAXS
main in order to make use of MAXS.
.

Repo Type:srclib
Repo:ProjectMAXS

Build:0.0.1.0,1
    commit=0.0.1.0
    subdir=main
    prebuild=make prebuild

Build:0.0.1.1,2
    commit=0.0.1.1
    subdir=main
    prebuild=make prebuild

Build:0.0.1.2,3
    commit=0.0.1.2
    subdir=main
    prebuild=make prebuild

Build:0.0.1.3,4
    commit=0.0.1.3
    subdir=main
    prebuild=make prebuild

Build:0.0.1.4,5
    disable=build tools failure as per [https://bitbucket.org/projectmaxs/maxs/commits/7750c9add95016294c5be9afd84a8de4834f7f20]
    commit=0.0.1.4
    subdir=main
    prebuild=make prebuild

Build:0.0.1.5,6
    commit=0.0.1.5
    subdir=main
    prebuild=make prebuild

Build:0.0.1.6,7
    commit=0.0.1.6
    subdir=main
    prebuild=make prebuild

Build:0.0.1.7,8
    commit=0.0.1.7
    subdir=main
    prebuild=make prebuild

Build:0.0.1.8,9
    commit=0.0.1.8
    subdir=main
    prebuild=make prebuild

Build:0.0.1.9,10
    commit=0.0.1.9
    subdir=main
    prebuild=make prebuild

Build:0.0.1.10,11
    commit=0.0.1.10
    subdir=main
    prebuild=make prebuild

Build:0.0.1.11,12
    commit=0.0.1.11
    subdir=main
    prebuild=make prebuild

Build:0.0.1.12,13
    commit=0.0.1.12
    subdir=main
    prebuild=make prebuild

Build:0.0.1.13,14
    commit=0.0.1.13
    subdir=main
    prebuild=make prebuild

Build:0.0.1.14,15
    commit=0.0.1.14
    subdir=main
    prebuild=make prebuild

Build:0.0.1.15,16
    commit=0.0.1.15
    subdir=main
    prebuild=make prebuild

Build:0.0.1.16,18
    commit=0.0.1.16
    subdir=main
    prebuild=make prebuild

Build:0.0.1.17,20
    commit=0.0.1.17
    subdir=main
    prebuild=make prebuild

Build:0.0.1.18,22
    commit=0.0.1.18
    subdir=main
    prebuild=make prebuild

Build:0.0.1.19,24
    commit=0.0.1.19
    subdir=main
    submodules=yes
    prebuild=make prebuild && \
        rm -rf ../module-shell/libraryProjects/root-commands/ExampleApp

Build:0.0.1.20,26
    commit=0.0.1.20
    subdir=main
    submodules=yes
    prebuild=make prebuild && \
        rm -rf ../module-shell/libraryProjects/root-commands/ExampleApp

Auto Update Mode:Version %v
Update Check Mode:Tags
Current Version:0.0.1.20
Current Version Code:26

